^D:\WORK_FOLD\STARGAMEPROJECT2\STARPROJECT2\LIB_LIVE2D\FRAMEWORK\FRAMEWORK.DIR\RELEASE\ACUBISMMOTION.OBJ|D:\WORK_FOLD\STARGAMEPROJECT2\STARPROJECT2\LIB_LIVE2D\FRAMEWORK\FRAMEWORK.DIR\RELEASE\CSMRECTF.OBJ|D:\WORK_FOLD\STARGAMEPROJECT2\STARPROJECT2\LIB_LIVE2D\FRAMEWORK\FRAMEWORK.DIR\RELEASE\CSMSTRING.OBJ|D:\WORK_FOLD\STARGAMEPROJECT2\STARPROJECT2\LIB_LIVE2D\FRAMEWORK\FRAMEWORK.DIR\RELEASE\CUBISMBREATH.OBJ|D:\WORK_FOLD\STARGAMEPROJECT2\STARPROJECT2\LIB_LIVE2D\FRAMEWORK\FRAMEWORK.DIR\RELEASE\CUBISMDEBUG.OBJ|D:\WORK_FOLD\STARGAMEPROJECT2\STARPROJECT2\LIB_LIVE2D\FRAMEWORK\FRAMEWORK.DIR\RELEASE\CUBISMDEFAULTPARAMETERID.OBJ|D:\WORK_FOLD\STARGAMEPROJECT2\STARPROJECT2\LIB_LIVE2D\FRAMEWORK\FRAMEWORK.DIR\RELEASE\CUBISMEXPRESSIONMOTION.OBJ|D:\WORK_FOLD\STARGAMEPROJECT2\STARPROJECT2\LIB_LIVE2D\FRAMEWORK\FRAMEWORK.DIR\RELEASE\CUBISMEYEBLINK.OBJ|D:\WORK_FOLD\STARGAMEPROJECT2\STARPROJECT2\LIB_LIVE2D\FRAMEWORK\FRAMEWORK.DIR\RELEASE\CUBISMFRAMEWORK.OBJ|D:\WORK_FOLD\STARGAMEPROJECT2\STARPROJECT2\LIB_LIVE2D\FRAMEWORK\FRAMEWORK.DIR\RELEASE\CUBISMID.OBJ|D:\WORK_FOLD\STARGAMEPROJECT2\STARPROJECT2\LIB_LIVE2D\FRAMEWORK\FRAMEWORK.DIR\RELEASE\CUBISMIDMANAGER.OBJ|D:\WORK_FOLD\STARGAMEPROJECT2\STARPROJECT2\LIB_LIVE2D\FRAMEWORK\FRAMEWORK.DIR\RELEASE\CUBISMJSON.OBJ|D:\WORK_FOLD\STARGAMEPROJECT2\STARPROJECT2\LIB_LIVE2D\FRAMEWORK\FRAMEWORK.DIR\RELEASE\CUBISMMATH.OBJ|D:\WORK_FOLD\STARGAMEPROJECT2\STARPROJECT2\LIB_LIVE2D\FRAMEWORK\FRAMEWORK.DIR\RELEASE\CUBISMMATRIX44.OBJ|D:\WORK_FOLD\STARGAMEPROJECT2\STARPROJECT2\LIB_LIVE2D\FRAMEWORK\FRAMEWORK.DIR\RELEASE\CUBISMMOC.OBJ|D:\WORK_FOLD\STARGAMEPROJECT2\STARPROJECT2\LIB_LIVE2D\FRAMEWORK\FRAMEWORK.DIR\RELEASE\CUBISMMODEL.OBJ|D:\WORK_FOLD\STARGAMEPROJECT2\STARPROJECT2\LIB_LIVE2D\FRAMEWORK\FRAMEWORK.DIR\RELEASE\CUBISMMODELMATRIX.OBJ|D:\WORK_FOLD\STARGAMEPROJECT2\STARPROJECT2\LIB_LIVE2D\FRAMEWORK\FRAMEWORK.DIR\RELEASE\CUBISMMODELSETTINGJSON.OBJ|D:\WORK_FOLD\STARGAMEPROJECT2\STARPROJECT2\LIB_LIVE2D\FRAMEWORK\FRAMEWORK.DIR\RELEASE\CUBISMMODELUSERDATA.OBJ|D:\WORK_FOLD\STARGAMEPROJECT2\STARPROJECT2\LIB_LIVE2D\FRAMEWORK\FRAMEWORK.DIR\RELEASE\CUBISMMODELUSERDATAJSON.OBJ|D:\WORK_FOLD\STARGAMEPROJECT2\STARPROJECT2\LIB_LIVE2D\FRAMEWORK\FRAMEWORK.DIR\RELEASE\CUBISMMOTION.OBJ|D:\WORK_FOLD\STARGAMEPROJECT2\STARPROJECT2\LIB_LIVE2D\FRAMEWORK\FRAMEWORK.DIR\RELEASE\CUBISMMOTIONJSON.OBJ|D:\WORK_FOLD\STARGAMEPROJECT2\STARPROJECT2\LIB_LIVE2D\FRAMEWORK\FRAMEWORK.DIR\RELEASE\CUBISMMOTIONMANAGER.OBJ|D:\WORK_FOLD\STARGAMEPROJECT2\STARPROJECT2\LIB_LIVE2D\FRAMEWORK\FRAMEWORK.DIR\RELEASE\CUBISMMOTIONQUEUEENTRY.OBJ|D:\WORK_FOLD\STARGAMEPROJECT2\STARPROJECT2\LIB_LIVE2D\FRAMEWORK\FRAMEWORK.DIR\RELEASE\CUBISMMOTIONQUEUEMANAGER.OBJ|D:\WORK_FOLD\STARGAMEPROJECT2\STARPROJECT2\LIB_LIVE2D\FRAMEWORK\FRAMEWORK.DIR\RELEASE\CUBISMOFFSCREENSURFACE_D3D11.OBJ|D:\WORK_FOLD\STARGAMEPROJECT2\STARPROJECT2\LIB_LIVE2D\FRAMEWORK\FRAMEWORK.DIR\RELEASE\CUBISMPHYSICS.OBJ|D:\WORK_FOLD\STARGAMEPROJECT2\STARPROJECT2\LIB_LIVE2D\FRAMEWORK\FRAMEWORK.DIR\RELEASE\CUBISMPHYSICSJSON.OBJ|D:\WORK_FOLD\STARGAMEPROJECT2\STARPROJECT2\LIB_LIVE2D\FRAMEWORK\FRAMEWORK.DIR\RELEASE\CUBISMPOSE.OBJ|D:\WORK_FOLD\STARGAMEPROJECT2\STARPROJECT2\LIB_LIVE2D\FRAMEWORK\FRAMEWORK.DIR\RELEASE\CUBISMRENDERER.OBJ|D:\WORK_FOLD\STARGAMEPROJECT2\STARPROJECT2\LIB_LIVE2D\FRAMEWORK\FRAMEWORK.DIR\RELEASE\CUBISMRENDERER_D3D11.OBJ|D:\WORK_FOLD\STARGAMEPROJECT2\STARPROJECT2\LIB_LIVE2D\FRAMEWORK\FRAMEWORK.DIR\RELEASE\CUBISMRENDERSTATE_D3D11.OBJ|D:\WORK_FOLD\STARGAMEPROJECT2\STARPROJECT2\LIB_LIVE2D\FRAMEWORK\FRAMEWORK.DIR\RELEASE\CUBISMSHADER_D3D11.OBJ|D:\WORK_FOLD\STARGAMEPROJECT2\STARPROJECT2\LIB_LIVE2D\FRAMEWORK\FRAMEWORK.DIR\RELEASE\CUBISMSTRING.OBJ|D:\WORK_FOLD\STARGAMEPROJECT2\STARPROJECT2\LIB_LIVE2D\FRAMEWORK\FRAMEWORK.DIR\RELEASE\CUBISMTARGETPOINT.OBJ|D:\WORK_FOLD\STARGAMEPROJECT2\STARPROJECT2\LIB_LIVE2D\FRAMEWORK\FRAMEWORK.DIR\RELEASE\CUBISMUSERMODEL.OBJ|D:\WORK_FOLD\STARGAMEPROJECT2\STARPROJECT2\LIB_LIVE2D\FRAMEWORK\FRAMEWORK.DIR\RELEASE\CUBISMVECTOR2.OBJ|D:\WORK_FOLD\STARGAMEPROJECT2\STARPROJECT2\LIB_LIVE2D\FRAMEWORK\FRAMEWORK.DIR\RELEASE\CUBISMVIEWMATRIX.OBJ
C:\WINDOWS\GLOBALIZATION\SORTING\SORTDEFAULT.NLS
D:\WORK_FOLD\STARGAMEPROJECT2\STARPROJECT2\LIB_LIVE2D\FRAMEWORK\FRAMEWORK.DIR\RELEASE\CUBISMBREATH.OBJ
C:\WINDOWS\SYSTEM32\TZRES.DLL
D:\WORK_FOLD\STARGAMEPROJECT2\STARPROJECT2\LIB_LIVE2D\FRAMEWORK\FRAMEWORK.DIR\RELEASE\CUBISMEYEBLINK.OBJ
D:\WORK_FOLD\STARGAMEPROJECT2\STARPROJECT2\LIB_LIVE2D\FRAMEWORK\FRAMEWORK.DIR\RELEASE\CUBISMPOSE.OBJ
D:\WORK_FOLD\STARGAMEPROJECT2\STARPROJECT2\LIB_LIVE2D\FRAMEWORK\FRAMEWORK.DIR\RELEASE\CUBISMID.OBJ
D:\WORK_FOLD\STARGAMEPROJECT2\STARPROJECT2\LIB_LIVE2D\FRAMEWORK\FRAMEWORK.DIR\RELEASE\CUBISMIDMANAGER.OBJ
D:\WORK_FOLD\STARGAMEPROJECT2\STARPROJECT2\LIB_LIVE2D\FRAMEWORK\FRAMEWORK.DIR\RELEASE\CUBISMMATH.OBJ
D:\WORK_FOLD\STARGAMEPROJECT2\STARPROJECT2\LIB_LIVE2D\FRAMEWORK\FRAMEWORK.DIR\RELEASE\CUBISMMATRIX44.OBJ
D:\WORK_FOLD\STARGAMEPROJECT2\STARPROJECT2\LIB_LIVE2D\FRAMEWORK\FRAMEWORK.DIR\RELEASE\CUBISMMODELMATRIX.OBJ
D:\WORK_FOLD\STARGAMEPROJECT2\STARPROJECT2\LIB_LIVE2D\FRAMEWORK\FRAMEWORK.DIR\RELEASE\CUBISMTARGETPOINT.OBJ
D:\WORK_FOLD\STARGAMEPROJECT2\STARPROJECT2\LIB_LIVE2D\FRAMEWORK\FRAMEWORK.DIR\RELEASE\CUBISMVECTOR2.OBJ
D:\WORK_FOLD\STARGAMEPROJECT2\STARPROJECT2\LIB_LIVE2D\FRAMEWORK\FRAMEWORK.DIR\RELEASE\CUBISMVIEWMATRIX.OBJ
D:\WORK_FOLD\STARGAMEPROJECT2\STARPROJECT2\LIB_LIVE2D\FRAMEWORK\FRAMEWORK.DIR\RELEASE\CUBISMMODEL.OBJ
D:\WORK_FOLD\STARGAMEPROJECT2\STARPROJECT2\LIB_LIVE2D\FRAMEWORK\FRAMEWORK.DIR\RELEASE\CUBISMMODELUSERDATA.OBJ
D:\WORK_FOLD\STARGAMEPROJECT2\STARPROJECT2\LIB_LIVE2D\FRAMEWORK\FRAMEWORK.DIR\RELEASE\CUBISMMODELUSERDATAJSON.OBJ
D:\WORK_FOLD\STARGAMEPROJECT2\STARPROJECT2\LIB_LIVE2D\FRAMEWORK\FRAMEWORK.DIR\RELEASE\CUBISMUSERMODEL.OBJ
D:\WORK_FOLD\STARGAMEPROJECT2\STARPROJECT2\LIB_LIVE2D\FRAMEWORK\FRAMEWORK.DIR\RELEASE\CUBISMMOC.OBJ
D:\WORK_FOLD\STARGAMEPROJECT2\STARPROJECT2\LIB_LIVE2D\FRAMEWORK\FRAMEWORK.DIR\RELEASE\CUBISMEXPRESSIONMOTION.OBJ
D:\WORK_FOLD\STARGAMEPROJECT2\STARPROJECT2\LIB_LIVE2D\FRAMEWORK\FRAMEWORK.DIR\RELEASE\CUBISMMOTION.OBJ
D:\WORK_FOLD\STARGAMEPROJECT2\STARPROJECT2\LIB_LIVE2D\FRAMEWORK\FRAMEWORK.DIR\RELEASE\CUBISMMOTIONJSON.OBJ
D:\WORK_FOLD\STARGAMEPROJECT2\STARPROJECT2\LIB_LIVE2D\FRAMEWORK\FRAMEWORK.DIR\RELEASE\CUBISMMOTIONMANAGER.OBJ
D:\WORK_FOLD\STARGAMEPROJECT2\STARPROJECT2\LIB_LIVE2D\FRAMEWORK\FRAMEWORK.DIR\RELEASE\CUBISMMOTIONQUEUEENTRY.OBJ
D:\WORK_FOLD\STARGAMEPROJECT2\STARPROJECT2\LIB_LIVE2D\FRAMEWORK\FRAMEWORK.DIR\RELEASE\CUBISMMOTIONQUEUEMANAGER.OBJ
D:\WORK_FOLD\STARGAMEPROJECT2\STARPROJECT2\LIB_LIVE2D\FRAMEWORK\FRAMEWORK.DIR\RELEASE\ACUBISMMOTION.OBJ
D:\WORK_FOLD\STARGAMEPROJECT2\STARPROJECT2\LIB_LIVE2D\FRAMEWORK\FRAMEWORK.DIR\RELEASE\CUBISMPHYSICSJSON.OBJ
D:\WORK_FOLD\STARGAMEPROJECT2\STARPROJECT2\LIB_LIVE2D\FRAMEWORK\FRAMEWORK.DIR\RELEASE\CUBISMPHYSICS.OBJ
D:\WORK_FOLD\STARGAMEPROJECT2\STARPROJECT2\LIB_LIVE2D\FRAMEWORK\FRAMEWORK.DIR\RELEASE\CUBISMRENDERER.OBJ
D:\WORK_FOLD\STARGAMEPROJECT2\STARPROJECT2\LIB_LIVE2D\FRAMEWORK\FRAMEWORK.DIR\RELEASE\CSMRECTF.OBJ
D:\WORK_FOLD\STARGAMEPROJECT2\STARPROJECT2\LIB_LIVE2D\FRAMEWORK\FRAMEWORK.DIR\RELEASE\CSMSTRING.OBJ
D:\WORK_FOLD\STARGAMEPROJECT2\STARPROJECT2\LIB_LIVE2D\FRAMEWORK\FRAMEWORK.DIR\RELEASE\CUBISMDEBUG.OBJ
D:\WORK_FOLD\STARGAMEPROJECT2\STARPROJECT2\LIB_LIVE2D\FRAMEWORK\FRAMEWORK.DIR\RELEASE\CUBISMJSON.OBJ
D:\WORK_FOLD\STARGAMEPROJECT2\STARPROJECT2\LIB_LIVE2D\FRAMEWORK\FRAMEWORK.DIR\RELEASE\CUBISMSTRING.OBJ
D:\WORK_FOLD\STARGAMEPROJECT2\STARPROJECT2\LIB_LIVE2D\FRAMEWORK\FRAMEWORK.DIR\RELEASE\CUBISMDEFAULTPARAMETERID.OBJ
D:\WORK_FOLD\STARGAMEPROJECT2\STARPROJECT2\LIB_LIVE2D\FRAMEWORK\FRAMEWORK.DIR\RELEASE\CUBISMFRAMEWORK.OBJ
D:\WORK_FOLD\STARGAMEPROJECT2\STARPROJECT2\LIB_LIVE2D\FRAMEWORK\FRAMEWORK.DIR\RELEASE\CUBISMMODELSETTINGJSON.OBJ
D:\WORK_FOLD\STARGAMEPROJECT2\STARPROJECT2\LIB_LIVE2D\FRAMEWORK\FRAMEWORK.DIR\RELEASE\CUBISMOFFSCREENSURFACE_D3D11.OBJ
D:\WORK_FOLD\STARGAMEPROJECT2\STARPROJECT2\LIB_LIVE2D\FRAMEWORK\FRAMEWORK.DIR\RELEASE\CUBISMRENDERER_D3D11.OBJ
D:\WORK_FOLD\STARGAMEPROJECT2\STARPROJECT2\LIB_LIVE2D\FRAMEWORK\FRAMEWORK.DIR\RELEASE\CUBISMRENDERSTATE_D3D11.OBJ
D:\WORK_FOLD\STARGAMEPROJECT2\STARPROJECT2\LIB_LIVE2D\FRAMEWORK\FRAMEWORK.DIR\RELEASE\CUBISMSHADER_D3D11.OBJ
